{
  // Place your snippets for latex here. Each snippet is defined under a snippet name and has a prefix, body and
  // description. The prefix is what is used to trigger the snippet and the body will be expanded and inserted. Possible variables are:
  // $1, $2 for tab stops, $0 for the final cursor position, and ${1:label}, ${2:another} for placeholders. Placeholders with the
  // same ids are connected.
  // Example:
  // "Print to console": {
  // 	"prefix": "log",
  // 	"body": [
  // 		"console.log('$1');",
  // 		"$2"
  // 	],
  // 	"description": "Log output to console"
  // }
  "bold_font": {
    "prefix": "bf",
    "body": [
      "\\textbf{$0}"
    ],
    "description": "Bold font."
  },
  "italicise_font": {
    "prefix": "if",
    "body": [
      "{\\itshape $0}"
    ],
    "description": "Italicise font."
  },
  "add_rightarrow": {
    "prefix": "ra",
    "body": [
      "\\$\\rightarrow\\$"
    ],
    "description": "Add a right arrow."
  },
  "add_codesnippet": {
    "prefix": "mc",
    "body": [
      "\\begin{lstlisting}[language=, caption={}, label={}]",
      "${1:<insert code>}",
      "\\end{lstlisting}"
    ],
    "description": "Add a code snippet."
  },
  "enumerate": {
    "prefix": "me",
    "body": [
      "\\begin{myenumerate}",
      "# $0",
      "\\end{myenumerate}"
    ],
    "description": "Add an enumerated list."
  },
  "list": {
    "prefix": "ml",
    "body": [
      "\\begin{mylist}",
      "# $0",
      "\\end{mylist}"
    ],
    "description": "Add a bullet list."
  },
  "add_figure": {
    "prefix": "mf",
    "body": [
      "\\begin{figure}[htp]",
      "    \\centering",
      "    \\includegraphics[width=0.5\\textwidth, frame]{$0}",
      "    \\caption[]{}",
      "    \\label{fig:}",
      "\\end{figure}"
    ],
    "description": "Add a figure."
  },
  "add_subfigure": {
    "prefix": "msf",
    "body": [
      "\\begin{figure}[htb!]",
      "\\centering",
      "    \\begin{subfigure}{.5\\textwidth}",
      "        \\centering",
      "        \\includegraphics[width=0.9\\linewidth, frame]{$0}",
      "        \\caption{}",
      "        \\label{fig:}",
      "    \\end{subfigure}%",
      "    \\begin{subfigure}{.5\\textwidth}",
      "        \\centering",
      "        \\includegraphics[width=0.9\\linewidth, frame]{}",
      "        \\caption{}",
      "        \\label{fig:}",
      "    \\end{subfigure} \\\\ [1ex]",
      "    \\begin{subfigure}{\\linewidth}",
      "        \\centering",
      "        \\includegraphics[width=0.5\\linewidth, frame]{}",
      "        \\caption{}",
      "        \\label{fig:}",
      "    \\end{subfigure}",
      "\\caption[]{}",
      "\\label{fig:}",
      "\\end{figure}",
    ],
    "description": "Add a subfigure."
  },
  "add_table": {
    "prefix": "mt",
    "body": [
      "\\begin{table}[htb!]",
      "    \\centering",
      "    \\begin{tabu} spread 0pt {X X[3, C]}",
      "        \\specialrule{.3em}{.2em}{.2em}",
      "        <col1> & <col2> \\\\\\",
      "        \\toprule",
      "        row1 & XXX \\\\\\",
      "        row2 & XXX \\\\\\",
      "        row3 & XXX \\\\\\",
      "        \\specialrule{.3em}{.2em}{.2em}",
      "    \\end{tabu}",
      "    \\caption[<short caption>]{<long caption>}",
      "    \\label{table:table_name}",
      "\\end{table}",
    ],
    "description": "Add a table."
  },
}